…
Now the “A” experiment only contains samples from group “A”, and “B”
experiment from group “B”.

## Converting to Tibbles

For operations beyond what glyexp provides, you can extract the
individual components:

Alternatively, use
[`as_tibble()`](https://tibble.tidyverse.org/reference/as_tibble.html)
to convert your experiment to a tibble in tidy format:

``` r
as_tibble(toy_exp)
#> # A tibble: 24 × 8
#>    sample group batch variable protein peptide glycan_composition value
#>    <chr>  <chr> <dbl> <chr>    <chr>   <chr>   <chr>              <int>
#>  1 S1     A         1 V1       PRO1    PEP1    H5N2                   1
#>  2 S2     A         2 V1       PRO1    PEP1    H5N2                   5
#>  3 S3     A         1 V1       PRO1    PEP1    H5N2                   9
#>  4 S4     B         2 V1       PRO1    PEP1    H5N2                  13
#>  5 S5     B         1 V1       PRO1    PEP1    H5N2                  17
#>  6 S6     B         2 V1       PRO1    PEP1    H5N2                  21
#>  7 S1     A         1 V2       PRO2    PEP2    H5N2                   2
#>  8 S2     A         2 V2       PRO2    PEP2    H5N2                   6
#>  9 S3     A         1 V2       PRO2    PEP2    H5N2                  10
#> 10 S4     B         2 V2       PRO2    PEP2    H5N2                  14
#> # ℹ 14 more rows
```
…
