…
What to expect in your variable information table:

- `glycan_composition`: The glycan’s composition as a
  [`glyrepr::glycan_composition()`](https://glycoverse.github.io/glyrepr/reference/glycan_composition.html)
  object
- `glycan_structure`: (Optional) The glycan’s structure as a
  [`glyrepr::glycan_structure()`](https://glycoverse.github.io/glyrepr/reference/glycan_structure.html)
  object

Here’s what this looks like in practice:

``` r
get_var_info(real_experiment2)
#> # A tibble: 67 × 3
#>    variable                             glycan_composition      glycan_structure
#>    <glue>                               <comp>                  <struct>        
#>  1 Man(3)GlcNAc(3)                      Man(3)GlcNAc(3)         GlcNAc(?1-?)Man…
#>  2 Man(3)GlcNAc(7)                      Man(3)GlcNAc(7)         GlcNAc(?1-?)[Gl…
#>  3 Man(5)GlcNAc(2)                      Man(5)GlcNAc(2)         Man(?1-?)[Man(?…
#>  4 Man(4)Gal(2)GlcNAc(4)Neu5Ac(2)       Man(4)Gal(2)GlcNAc(4)N… Neu5Ac(?2-?)Gal…
#>  5 Man(3)Gal(1)GlcNAc(3)                Man(3)Gal(1)GlcNAc(3)   Gal(?1-?)GlcNAc…
#>  6 Man(3)Gal(2)GlcNAc(4)Fuc(2)          Man(3)Gal(2)GlcNAc(4)F… Gal(?1-?)GlcNAc…
#>  7 Man(3)GlcNAc(3)Fuc(1)                Man(3)GlcNAc(3)Fuc(1)   GlcNAc(?1-?)Man…
#>  8 Man(3)GlcNAc(4)                      Man(3)GlcNAc(4)         GlcNAc(?1-?)Man…
#>  9 Man(3)Gal(2)GlcNAc(5)Neu5Ac(1)       Man(3)Gal(2)GlcNAc(5)N… Neu5Ac(?2-?)Gal…
#> 10 Man(3)Gal(1)GlcNAc(5)Fuc(1)Neu5Ac(1) Man(3)Gal(1)GlcNAc(5)F… Neu5Ac(?2-?)Gal…
#> # ℹ 57 more rows
```
…
- `protein`: The protein UniProt accession (character string)
- `protein_site`: The glycosylation site position on the protein
  (integer)
- `glycan_composition`: The glycan composition as a
  [`glyrepr::glycan_composition()`](https://glycoverse.github.io/glyrepr/reference/glycan_composition.html)
  object
- `glycan_structure`: (Optional) The glycan structure as a
  [`glyrepr::glycan_structure()`](https://glycoverse.github.io/glyrepr/reference/glycan_structure.html)
  object

Here’s a real example to illustrate:

``` r
get_var_info(real_experiment)
#> # A tibble: 4,262 × 8
#>    variable   peptide peptide_site protein protein_site gene  glycan_composition
#>    <chr>      <chr>          <int> <chr>          <int> <chr> <comp>            
#>  1 P08185-N1… NKTQGK             1 P08185           176 SERP… Hex(5)HexNAc(4)Ne…
#>  2 P04196-N3… HSHNNN…            5 P04196           344 HRG   Hex(5)HexNAc(4)Ne…
#>  3 P04196-N3… HSHNNN…            5 P04196           344 HRG   Hex(5)HexNAc(4)   
#>  4 P04196-N3… HSHNNN…            5 P04196           344 HRG   Hex(5)HexNAc(4)Ne…
#>  5 P10909-N2… HNSTGC…            2 P10909           291 CLU   Hex(6)HexNAc(5)   
#>  6 P04196-N3… HSHNNN…            5 P04196           344 HRG   Hex(5)HexNAc(4)Ne…
#>  7 P04196-N3… HSHNNN…            6 P04196           345 HRG   Hex(5)HexNAc(4)   
#>  8 P04196-N3… HSHNNN…            5 P04196           344 HRG   Hex(5)HexNAc(4)dH…
#>  9 P04196-N3… HSHNNN…            5 P04196           344 HRG   Hex(4)HexNAc(3)   
#> 10 P04196-N3… HSHNNN…            5 P04196           344 HRG   Hex(4)HexNAc(4)Ne…
#> # ℹ 4,252 more rows
#> # ℹ 1 more variable: glycan_structure <struct>
```
…
